[
  {
    "id": "1",
    "Nom": "Rodrigue",
    "Prénom": "Queraud",
    "Mail": "queraudrodrigue@outlook.fr",
    "Tel": "06 70 34 11 12 ",
    "photo": "./static/Rodrigue.png"
    
  },
  {
    "id": "2",
    "Nom": "Zahir",
    "Prénom": "Massoud",
    "Mail": "massoudzahir.simplon@gmail.com",
    "Tel": "06 22 81 55 06",
    "photo": "./static/Massoud.png"
  },
  {
    "id": "3",
    "Nom": "Knapper",
    "Prénom": "Anthony",
    "Mail": "anthony.knapper@gmail.com",
    "Tel": "06 50 89 21 91",
    "photo": "./static/Anthony.png"
  },
  {
    "id": "4",
    "Nom": "Bottaro",
    "Prénom": "Gregorio",
    "Mail": "bottarog95@gmail.com",
    "Tel": "07 82 64 68 50 ",
    "photo": "./static/Gregorio.png"
  },
  {
    "id": "5",
    "Nom": "Sembel",
    "Prénom": "Aurore",
    "Mail": "auroresembel@gmail.com",
    "Tel": "06 80 37 16 13",
    "photo": "./static/aurore.png"
  },
  {
    "id": "6",
    "Nom": "Serres",
    "Prénom": "Florent",
    "Mail": "serres.florentdu46@gmail.com",
    "Tel": "06 29 05 83 09",
    "photo": "./static/Florent.png"
  },
  {
    "id": "7",
    "Nom": "Stogren",
    "Prénom": "Wojtek",
    "Mail": "wojtekdevweb@gmail.com",
    "Tel": "06 76 46 92 72 ",
    "photo": "./static/Wojciech.png"
  },
  {
    "id": "8",
    "Nom": "Tapin",
    "Prénom": "Jonathan",
    "Mail": "jonathan.tapin@gmail.com",
    "Tel": "06 83 84 29 05",
    "photo": "./static/Jonathan.png"
  },
  {
    "id": "9",
    "Nom": "Lison",
    "Prénom": "Lucile",
    "Mail": "lucilelison@gmail.com",
    "Tel": "06 74 46 53 41 ",
    "photo": "./static/Lucile.png"
  },
  {
    "id": "10",
    "Nom": "Joffre",
    "Prénom": "Benoit",
    "Mail": "benoit.joffre911@gmail.com",
    "Tel": "06 99 21 90 50 ",
    "photo": "./static/Benoît.png"
  },
  {
    "id": "11",
    "Nom": "Pons",
    "Prénom": "Sylvain",
    "Mail": "sylvainpons680@gmail.com",
    "Tel": "06 78 29 78 57",
    "photo": "./static/Sylvain.png"
  },
  {
    "id": "12",
    "Nom": "Correa Dos Santos",
    "Prénom": "Bréno",
    "Mail": "brenocorrea14@gmail.com",
    "Tel": "07 68 61 08 12",
    "photo": "./static/Breno.png"
  },
  {
    "id": "13",
    "Nom": "Stamierowski",
    "Prénom": "Yannick",
    "Mail": "yannick.stamierowski@gmail.com",
    "Tel": "06 73 28 68 38 ",
    "photo": "./static/Yannik.png"
  },
  {
    "id": "14",
    "Nom": "Hama",
    "Prénom": "Rabe",
    "Mail": "hamarabe46260@gmail.com",
    "Tel": "06 35 63 17 64",
    "photo": "./static/Rabe.png"
  },
  {
    "id": "15",
    "Nom": "Sayon",
    "Prénom": "Loïc",
    "Mail": "lsayon@outlook.fr",
    "Tel": "07 71 68 38 34 ",
    "photo": "./static/Loic.png"
  },
  {
    "id": "16",
    "Nom": "N'Guyen",
    "Prénom": "Julien",
    "Mail": "juliennguyen1@gmail.com",
    "Tel": "06 72 56 32 69 ",
    "photo": "./static/Julien.jpg"
  }
]